Estadísticas de COVID
…
- library(ggplot2) La usamos para la realización de gráficas más atractivas visualmente.

- library(plotly) Esta librería es una forma sencilla de realizar gráficas.

##Para empezar a trabajar con los datos de Excel, tuvimos que subir los archivos a RStudio Cloud, y utilizar nuestra función de read_excel para poder trabajar con ellos.

CasosCOVID <- read_excel("CasosCOVID.xlsx")
MuertesCOVID<- read_excel("MuertesCOVID.xlsx")
PruebasCOVID<-read_excel("PruebasCOVID.xlsx")

Para visualizar la tabla de datos que vienen en los archivos de Excel en un Chunk agregamos el nombre de nuestro archivo

CasosCOVID

## # A tibble: 291 x 2
##    Fecha               `N. de casos`
##    <dttm>                      <dbl>
##  1 2020-03-18 00:00:00            25
##  2 2020-03-19 00:00:00            46
##  3 2020-03-20 00:00:00            39
##  4 2020-03-21 00:00:00            48
##  5 2020-03-22 00:00:00            51
##  6 2020-03-23 00:00:00            38
##  7 2020-03-24 00:00:00            70
##  8 2020-03-25 00:00:00           110
##  9 2020-03-26 00:00:00           132
## 10 2020-03-27 00:00:00           131
## # … with 281 more rows

MuertesCOVID

## # A tibble: 291 x 2
##    Fecha               `N. de muertes`
##    <dttm>                        <dbl>
##  1 2020-03-18 00:00:00               0
##  2 2020-03-19 00:00:00               1
##  3 2020-03-20 00:00:00               1
##  4 2020-03-21 00:00:00               0
##  5 2020-03-22 00:00:00               1
##  6 2020-03-23 00:00:00               1
##  7 2020-03-24 00:00:00               1
##  8 2020-03-25 00:00:00               1
##  9 2020-03-26 00:00:00               1
## 10 2020-03-27 00:00:00               4
## # … with 281 more rows

PruebasCOVID

## # A tibble: 291 x 2
##    Fecha               `N. de pruebas realizadas`
##    <dttm>                                   <dbl>
##  1 2020-03-18 00:00:00                        773
##  2 2020-03-19 00:00:00                        842
##  3 2020-03-20 00:00:00                        760
##  4 2020-03-21 00:00:00                        490
##  5 2020-03-22 00:00:00                        410
##  6 2020-03-23 00:00:00                       1082
##  7 2020-03-24 00:00:00                       1374
##  8 2020-03-25 00:00:00                       1430
##  9 2020-03-26 00:00:00                       1372
## 10 2020-03-27 00:00:00                       1596
## # … with 281 more rows
…
